<?xml version="1.0" encoding="UTF-8" standalone="no"?>
<svg xmlns="http://www.w3.org/2000/svg"
     version="1.0" width="128px" height="128px" viewBox="0 0 128 128"
     xml:space="preserve"><g transform="translate(128,0) scale(-1,1)"><linearGradient id="linear-gradient"><stop offset="0%" stop-color="#fff"/><stop
        offset="100%" stop-color="#000"/></linearGradient><path
        d="M63.85 0A63.85 63.85 0 1 1 0 63.85 63.85 63.85 0 0 1 63.85 0zm.65 19.5a44 44 0 1 1-44 44 44 44 0 0 1 44-44z"
        fill="url(#linear-gradient)" fill-rule="evenodd"/><animateTransform attributeName="transform" type="rotate"
                                                                            from="0 64 64" to="360 64 64" dur="1560ms"
                                                                            repeatCount="indefinite"/></g></svg>
